…
``` r
set.seed(1586)
BootstrapHourlyWage <-
  specify(SimulationHourlyWage,
          `Hourly Wage` ~ NULL) |>
  generate(reps = 3000, type = "bootstrap") |>
  calculate(stat = "mean")

BootstrapHourlyWage
```

    Response: Hourly Wage (numeric)
    # A tibble: 3,000 × 2
       replicate  stat
           <int> <dbl>
     1         1  42.9
     2         2  39.9
     3         3  41.6
     4         4  43.7
     5         5  40.5
     6         6  40.8
     7         7  41.1
     8         8  42.9
     9         9  41.3
    10        10  40.5
    # ℹ 2,990 more rows
…
