…
    # A tibble: 2 × 3
      company         n   pct
      <chr>       <int> <dbl>
    1 Uber    153847310 0.724
    2 Lyft     58568773 0.276

- `dispatching_base_num`: This column doesn’t show much information, so
  we will **erase** this column as it doesn’t show any useful
  information.

``` r
NycTrips2022 |> count_pct(dispatching_base_num)
```

    # A tibble: 29 × 3
       dispatching_base_num         n       pct
       <chr>                    <int>     <dbl>
     1 B03404               153732577 0.724    
     2 B03406                58568773 0.276    
     3 B02764                   54512 0.000257 
     4 B02872                    6078 0.0000286
     5 B02395                    4789 0.0000225
     6 B02882                    4097 0.0000193
     7 B02835                    3936 0.0000185
     8 B02870                    3887 0.0000183
     9 B02887                    3684 0.0000173
    10 B02876                    3607 0.0000170
    # ℹ 19 more rows

- `originating_base_num`: This column doesn’t show much information, so
  we will **erase** this column as it doesn’t show any useful
  information.

``` r
NycTrips2022 |> count_pct(originating_base_num)
```

    # A tibble: 37 × 3
       originating_base_num         n       pct
       <chr>                    <int>     <dbl>
     1 B03404               153730161 0.724    
     2 <NA>                  58498724 0.275    
     3 B03406                   71481 0.000337 
     4 B02764                   54511 0.000257 
     5 B02872                    6078 0.0000286
     6 B02395                    4789 0.0000225
     7 B02882                    4097 0.0000193
     8 B02835                    3936 0.0000185
     9 B02870                    3887 0.0000183
    10 B02887                    3684 0.0000173
    # ℹ 27 more rows
…
